Amplificador Sonar Kit Valeman Analise em frequencia (AC)
*
* NETLIST: Descrição em do circuito
* Fontes DC de alimentação simetrica
VCC 1 0 dc 5V
VEE 0 2 dc 5V
VGND 0 10 dc 2.5V
* Entrada de sinal. Para analise AC deve apenas indicar a amplitude de sinal.
VIN 3 0 dc 0.0 ac 0.01V
C7  3 4 10nF  
R11 4 5 1k
R9 5 6 15k
C8  6 7 10nF  
R12 7 8 1k
R10 8 out 15k
* amp ops 
xamp2 5 10 1 2 6 TL074
xamp3 8 10 1 2 out TL074
.include ./TL074.mod
*
****************
* Os comandos de simulação SPICE entre '.control' e '.endc' 
.control
* SPICE ANALYSIS
* OP -> Operating Point Analysis 
OP
* Apresentar no ecran todos os valores numéricos da simulação
print all
* Analise em 
* (Small-Signal AC Analysis)
*  AC DEC ND FSTART FSTOP 
*    DEC for decade variation, 
*		  ND=number of pointsper decade
*		  	 FSTART 
*			 		FSTOP set the frequency range for the simulation
AC dec 100 1K 1MEG
* Grafico logaritmo (em dB) das no ecran de duas tensões em função da frequencia
*  
plot Vdb(3) Vdb(out) 
* Outros modos
*plot v(out) $ real part !
*plot mag(v(out)) $ magnitude
*plot db(v(out)) $ mesmo que  vdb(2)  
*plot imag(v(out)) $ imaginary part of v(2)
*plot real(v(out)) $ same as plot v(2)
*plot phase(v(out)) $ phase in rad
*plot cph(v(out)) $ phase in rad , continuous beyond pi plot 180/PI*phase(v(2)) $ phase in deg
*plot 180/PI*phase(v(v)) 	$ phase in deg
*
set gnuplot_terminal=png
gnuplot IAMPFREQ Vdb(3) Vdb(out)
* 
.endc
*
.END
