set terminal X11
set title "ie lab1"
set xlabel "s"
set grid
unset logscale x 
set xrange [0.000000e+00:1.000000e-04]
unset logscale y 
set yrange [-1.105677e-02:2.321921e-01]
#set xtics 1
#set x2tics 1
#set ytics 1
#set y2tics 1
set format y "%g"
set format x "%g"
plot '2.data' using 1:2 with lines lw 1 title "v(21)*220" 
set terminal push
set terminal png
set out '2.png'
replot
set term pop
replot
