ie lab1

.include ./LM358.mod

vcc 100 0 dc 5V
vee 0 101 dc 5V
v1 0 1 pwl(0 0m 10u 0m 12u 180m 35u -2m 1ms 0)
r1 1 2 2k
r2 2 3 1e6 
c1 2 3 10n
xamp1 0 2 100 101 3 LM358

v7  0  71 pwl(0 0m 10u 0m 12u 180m 35u -2m 1ms 0)
r71 71 72 20k
r72 72 73 1e6 
c71 72 73 10n
xamp71 0 72 100 101 73 LM358

v8   0 81 pwl(0 0m 10u 0m 12u 180m 35u -2m 1ms 0)
r81 81 82 200k
r82 82 83 1e6 
c81 82 83 10n
xamp81 0 82 100 101 83 LM358

v91 0  91 pwl(0 0m 10u 0m 12u 180m 35u -2m 1ms 0)
r91 91 92 200
r92 92 93 1e6 
c91 92 93 10n
xamp91 0 92 100 101 93 LM358

v10  10 0 pwl(0 0m 10u 0m 12u 180m 35u -2m 1ms 0)
r11 10 11 1k
c10 11  0 33n
r12  0 12 1k
c11 12 13 33n 
r13 12 13 1000k
xamp12 11 12 100 101 13 LM358

v11 110 0 pwl(0 0m 10u 0m 12u 180m 35u -2m 1ms 0)
r111 110 111 10k
c110 111  0  33n
r112  0 112  10k
c111 112 113 33n 
r113 112 113 1000k
xamp2 111 112 100 101 113 LM358

v12  210 0 pwl(0 0m 10u 0m 12u 180m 35u -2m 1ms 0)
r211 210 211 1k
c210 211  0 330n
r212  0 212 1k
c211 212 213 330n 
r213 212 213 1000k
xamp22 211 212 100 101 213 LM358

v13  310 0 pwl(0 0m 10u 0m 12u 180m 35u -2m 1ms 0)
r311 310 311 10k
c310 311  0 330n
r312  0 312 10k
c311 312 313 330n 
r313 312 313 1000k
xamp32 311 312 100 101 313 LM358




v3 20 0 pwl(0 0m 10u 0m 12u 180m 35u -2m 1ms 0)
r20 20 21 1k 
c20 21 0  470n

v4 30 0 pwl(0 0m 10u 0m 12u 180m 35u -2m 1ms 0)
r30 30 31 100k 
c30 31 0  470n

v5 40 0 pwl(0 0m 10u 0m 12u 180m 35u -2m 1ms 0)
r40 40 41 1k 
c40 41 0  47n

v6 50 0 pwl(0 0m 10u 0m 12u 180m 35u -2m 1ms 0)
r50 50 51 10k 
c50 51 0  470n

.control
OP
tran 100ns 1ms 
set gnuplot_terminal=png

gnuplot 1 -V(3)-0.036  V(13)*1.9+0.064  V(21)*26
.endc
.END
